module emergency_response-service

go 1.22.2

require (
	github.com/DATA-DOG/go-sqlmock v1.5.2
	github.com/google/uuid v1.6.0
	github.com/joho/godotenv v1.5.1
	github.com/lib/pq v1.10.9
	github.com/spf13/cast v1.6.0
	github.com/stretchr/testify v1.9.0
	go.mongodb.org/mongo-driver v1.15.1
	google.golang.org/grpc v1.64.0
	google.golang.org/protobuf v1.34.2
)

require (
	github.com/davecgh/go-spew v1.1.1 // indirect
	github.com/golang/snappy v0.0.1 // indirect
	github.com/klauspost/compress v1.13.6 // indirect
	github.com/montanaflynn/stats v0.0.0-20171201202039-1bf9dbcd8cbe // indirect
	github.com/pmezard/go-difflib v1.0.0 // indirect
	github.com/xdg-go/pbkdf2 v1.0.0 // indirect
	github.com/xdg-go/scram v1.1.2 // indirect
	github.com/xdg-go/stringprep v1.0.4 // indirect
	github.com/youmark/pkcs8 v0.0.0-20181117223130-1be2e3e5546d // indirect
	golang.org/x/crypto v0.21.0 // indirect
	golang.org/x/net v0.22.0 // indirect
	golang.org/x/sync v0.6.0 // indirect
	golang.org/x/sys v0.18.0 // indirect
	golang.org/x/text v0.14.0 // indirect
	google.golang.org/genproto/googleapis/rpc v0.0.0-20240318140521-94a12d6c2237 // indirect
	gopkg.in/yaml.v3 v3.0.1 // indirect
)
